desktop/single/tb_riscv_single/single_cycle.vcd
$date
	Thu Apr 10 16:39:34 2025
$end
$version
	QuestaSim Version 10.6c
$end
$timescale
	1ps
$end

$scope module tb_riscv_single $end
$var reg 1 ! clk $end
$var reg 1 " rst_n $end

$scope module uut $end
$var wire 1 # clk $end
$var wire 1 $ rst_n $end
$var wire 1 % reg_write $end
$var wire 1 & mem_to_reg $end
$var wire 1 ' mem_write $end
$var wire 1 ( mem_read $end
$var wire 1 ) alu_src [1] $end
$var wire 1 * alu_src [0] $end
$var wire 1 + pc_src $end
$var wire 1 , alu_ctrl [2] $end
$var wire 1 - alu_ctrl [1] $end
$var wire 1 . alu_ctrl [0] $end
$var wire 1 / custom_en $end
$var reg 32 0 pc [31:0] $end
$var wire 1 1 instr [31] $end
$var wire 1 2 instr [30] $end
$var wire 1 3 instr [29] $end
$var wire 1 4 instr [28] $end
$var wire 1 5 instr [27] $end
$var wire 1 6 instr [26] $end
$var wire 1 7 instr [25] $end
$var wire 1 8 instr [24] $end
$var wire 1 9 instr [23] $end
$var wire 1 : instr [22] $end
$var wire 1 ; instr [21] $end
$var wire 1 < instr [20] $end
$var wire 1 = instr [19] $end
$var wire 1 > instr [18] $end
$var wire 1 ? instr [17] $end
$var wire 1 @ instr [16] $end
$var wire 1 A instr [15] $end
$var wire 1 B instr [14] $end
$var wire 1 C instr [13] $end
$var wire 1 D instr [12] $end
$var wire 1 E instr [11] $end
$var wire 1 F instr [10] $end
$var wire 1 G instr [9] $end
$var wire 1 H instr [8] $end
$var wire 1 I instr [7] $end
$var wire 1 J instr [6] $end
$var wire 1 K instr [5] $end
$var wire 1 L instr [4] $end
$var wire 1 M instr [3] $end
$var wire 1 N instr [2] $end
$var wire 1 O instr [1] $end
$var wire 1 P instr [0] $end
$var wire 1 Q rd_data [31] $end
$var wire 1 R rd_data [30] $end
$var wire 1 S rd_data [29] $end
$var wire 1 T rd_data [28] $end
$var wire 1 U rd_data [27] $end
$var wire 1 V rd_data [26] $end
$var wire 1 W rd_data [25] $end
$var wire 1 X rd_data [24] $end
$var wire 1 Y rd_data [23] $end
$var wire 1 Z rd_data [22] $end
$var wire 1 [ rd_data [21] $end
$var wire 1 \ rd_data [20] $end
$var wire 1 ] rd_data [19] $end
$var wire 1 ^ rd_data [18] $end
$var wire 1 _ rd_data [17] $end
$var wire 1 ` rd_data [16] $end
$var wire 1 a rd_data [15] $end
$var wire 1 b rd_data [14] $end
$var wire 1 c rd_data [13] $end
$var wire 1 d rd_data [12] $end
$var wire 1 e rd_data [11] $end
$var wire 1 f rd_data [10] $end
$var wire 1 g rd_data [9] $end
$var wire 1 h rd_data [8] $end
$var wire 1 i rd_data [7] $end
$var wire 1 j rd_data [6] $end
$var wire 1 k rd_data [5] $end
$var wire 1 l rd_data [4] $end
$var wire 1 m rd_data [3] $end
$var wire 1 n rd_data [2] $end
$var wire 1 o rd_data [1] $end
$var wire 1 p rd_data [0] $end
$var wire 1 q rs1_data [31] $end
$var wire 1 r rs1_data [30] $end
$var wire 1 s rs1_data [29] $end
$var wire 1 t rs1_data [28] $end
$var wire 1 u rs1_data [27] $end
$var wire 1 v rs1_data [26] $end
$var wire 1 w rs1_data [25] $end
$var wire 1 x rs1_data [24] $end
$var wire 1 y rs1_data [23] $end
$var wire 1 z rs1_data [22] $end
$var wire 1 { rs1_data [21] $end
$var wire 1 | rs1_data [20] $end
$var wire 1 } rs1_data [19] $end
$var wire 1 ~ rs1_data [18] $end
$var wire 1 !! rs1_data [17] $end
$var wire 1 "! rs1_data [16] $end
$var wire 1 #! rs1_data [15] $end
$var wire 1 $! rs1_data [14] $end
$var wire 1 %! rs1_data [13] $end
$var wire 1 &! rs1_data [12] $end
$var wire 1 '! rs1_data [11] $end
$var wire 1 (! rs1_data [10] $end
$var wire 1 )! rs1_data [9] $end
$var wire 1 *! rs1_data [8] $end
$var wire 1 +! rs1_data [7] $end
$var wire 1 ,! rs1_data [6] $end
$var wire 1 -! rs1_data [5] $end
$var wire 1 .! rs1_data [4] $end
$var wire 1 /! rs1_data [3] $end
$var wire 1 0! rs1_data [2] $end
$var wire 1 1! rs1_data [1] $end
$var wire 1 2! rs1_data [0] $end
$var wire 1 3! rs2_data [31] $end
$var wire 1 4! rs2_data [30] $end
$var wire 1 5! rs2_data [29] $end
$var wire 1 6! rs2_data [28] $end
$var wire 1 7! rs2_data [27] $end
$var wire 1 8! rs2_data [26] $end
$var wire 1 9! rs2_data [25] $end
$var wire 1 :! rs2_data [24] $end
$var wire 1 ;! rs2_data [23] $end
$var wire 1 <! rs2_data [22] $end
$var wire 1 =! rs2_data [21] $end
$var wire 1 >! rs2_data [20] $end
$var wire 1 ?! rs2_data [19] $end
$var wire 1 @! rs2_data [18] $end
$var wire 1 A! rs2_data [17] $end
$var wire 1 B! rs2_data [16] $end
$var wire 1 C! rs2_data [15] $end
$var wire 1 D! rs2_data [14] $end
$var wire 1 E! rs2_data [13] $end
$var wire 1 F! rs2_data [12] $end
$var wire 1 G! rs2_data [11] $end
$var wire 1 H! rs2_data [10] $end
$var wire 1 I! rs2_data [9] $end
$var wire 1 J! rs2_data [8] $end
$var wire 1 K! rs2_data [7] $end
$var wire 1 L! rs2_data [6] $end
$var wire 1 M! rs2_data [5] $end
$var wire 1 N! rs2_data [4] $end
$var wire 1 O! rs2_data [3] $end
$var wire 1 P! rs2_data [2] $end
$var wire 1 Q! rs2_data [1] $end
$var wire 1 R! rs2_data [0] $end
$var wire 1 S! alu_result [31] $end
$var wire 1 T! alu_result [30] $end
$var wire 1 U! alu_result [29] $end
$var wire 1 V! alu_result [28] $end
$var wire 1 W! alu_result [27] $end
$var wire 1 X! alu_result [26] $end
$var wire 1 Y! alu_result [25] $end
$var wire 1 Z! alu_result [24] $end
$var wire 1 [! alu_result [23] $end
$var wire 1 \! alu_result [22] $end
$var wire 1 ]! alu_result [21] $end
$var wire 1 ^! alu_result [20] $end
$var wire 1 _! alu_result [19] $end
$var wire 1 `! alu_result [18] $end
$var wire 1 a! alu_result [17] $end
$var wire 1 b! alu_result [16] $end
$var wire 1 c! alu_result [15] $end
$var wire 1 d! alu_result [14] $end
$var wire 1 e! alu_result [13] $end
$var wire 1 f! alu_result [12] $end
$var wire 1 g! alu_result [11] $end
$var wire 1 h! alu_result [10] $end
$var wire 1 i! alu_result [9] $end
$var wire 1 j! alu_result [8] $end
$var wire 1 k! alu_result [7] $end
$var wire 1 l! alu_result [6] $end
$var wire 1 m! alu_result [5] $end
$var wire 1 n! alu_result [4] $end
$var wire 1 o! alu_result [3] $end
$var wire 1 p! alu_result [2] $end
$var wire 1 q! alu_result [1] $end
$var wire 1 r! alu_result [0] $end
$var wire 1 s! mem_data [31] $end
$var wire 1 t! mem_data [30] $end
$var wire 1 u! mem_data [29] $end
$var wire 1 v! mem_data [28] $end
$var wire 1 w! mem_data [27] $end
$var wire 1 x! mem_data [26] $end
$var wire 1 y! mem_data [25] $end
$var wire 1 z! mem_data [24] $end
$var wire 1 {! mem_data [23] $end
$var wire 1 |! mem_data [22] $end
$var wire 1 }! mem_data [21] $end
$var wire 1 ~! mem_data [20] $end
$var wire 1 !" mem_data [19] $end
$var wire 1 "" mem_data [18] $end
$var wire 1 #" mem_data [17] $end
$var wire 1 $" mem_data [16] $end
$var wire 1 %" mem_data [15] $end
$var wire 1 &" mem_data [14] $end
$var wire 1 '" mem_data [13] $end
$var wire 1 (" mem_data [12] $end
$var wire 1 )" mem_data [11] $end
$var wire 1 *" mem_data [10] $end
$var wire 1 +" mem_data [9] $end
$var wire 1 ," mem_data [8] $end
$var wire 1 -" mem_data [7] $end
$var wire 1 ." mem_data [6] $end
$var wire 1 /" mem_data [5] $end
$var wire 1 0" mem_data [4] $end
$var wire 1 1" mem_data [3] $end
$var wire 1 2" mem_data [2] $end
$var wire 1 3" mem_data [1] $end
$var wire 1 4" mem_data [0] $end
$var wire 1 5" imm_ext [31] $end
$var wire 1 6" imm_ext [30] $end
$var wire 1 7" imm_ext [29] $end
$var wire 1 8" imm_ext [28] $end
$var wire 1 9" imm_ext [27] $end
$var wire 1 :" imm_ext [26] $end
$var wire 1 ;" imm_ext [25] $end
$var wire 1 <" imm_ext [24] $end
$var wire 1 =" imm_ext [23] $end
$var wire 1 >" imm_ext [22] $end
$var wire 1 ?" imm_ext [21] $end
$var wire 1 @" imm_ext [20] $end
$var wire 1 A" imm_ext [19] $end
$var wire 1 B" imm_ext [18] $end
$var wire 1 C" imm_ext [17] $end
$var wire 1 D" imm_ext [16] $end
$var wire 1 E" imm_ext [15] $end
$var wire 1 F" imm_ext [14] $end
$var wire 1 G" imm_ext [13] $end
$var wire 1 H" imm_ext [12] $end
$var wire 1 I" imm_ext [11] $end
$var wire 1 J" imm_ext [10] $end
$var wire 1 K" imm_ext [9] $end
$var wire 1 L" imm_ext [8] $end
$var wire 1 M" imm_ext [7] $end
$var wire 1 N" imm_ext [6] $end
$var wire 1 O" imm_ext [5] $end
$var wire 1 P" imm_ext [4] $end
$var wire 1 Q" imm_ext [3] $end
$var wire 1 R" imm_ext [2] $end
$var wire 1 S" imm_ext [1] $end
$var wire 1 T" imm_ext [0] $end
$var integer 32 U" i $end
$var wire 1 V" alu_in2 [31] $end
$var wire 1 W" alu_in2 [30] $end
$var wire 1 X" alu_in2 [29] $end
$var wire 1 Y" alu_in2 [28] $end
$var wire 1 Z" alu_in2 [27] $end
$var wire 1 [" alu_in2 [26] $end
$var wire 1 \" alu_in2 [25] $end
$var wire 1 ]" alu_in2 [24] $end
$var wire 1 ^" alu_in2 [23] $end
$var wire 1 _" alu_in2 [22] $end
$var wire 1 `" alu_in2 [21] $end
$var wire 1 a" alu_in2 [20] $end
$var wire 1 b" alu_in2 [19] $end
$var wire 1 c" alu_in2 [18] $end
$var wire 1 d" alu_in2 [17] $end
$var wire 1 e" alu_in2 [16] $end
$var wire 1 f" alu_in2 [15] $end
$var wire 1 g" alu_in2 [14] $end
$var wire 1 h" alu_in2 [13] $end
$var wire 1 i" alu_in2 [12] $end
$var wire 1 j" alu_in2 [11] $end
$var wire 1 k" alu_in2 [10] $end
$var wire 1 l" alu_in2 [9] $end
$var wire 1 m" alu_in2 [8] $end
$var wire 1 n" alu_in2 [7] $end
$var wire 1 o" alu_in2 [6] $end
$var wire 1 p" alu_in2 [5] $end
$var wire 1 q" alu_in2 [4] $end
$var wire 1 r" alu_in2 [3] $end
$var wire 1 s" alu_in2 [2] $end
$var wire 1 t" alu_in2 [1] $end
$var wire 1 u" alu_in2 [0] $end

$scope module u_alu $end
$var wire 1 q a [31] $end
$var wire 1 r a [30] $end
$var wire 1 s a [29] $end
$var wire 1 t a [28] $end
$var wire 1 u a [27] $end
$var wire 1 v a [26] $end
$var wire 1 w a [25] $end
$var wire 1 x a [24] $end
$var wire 1 y a [23] $end
$var wire 1 z a [22] $end
$var wire 1 { a [21] $end
$var wire 1 | a [20] $end
$var wire 1 } a [19] $end
$var wire 1 ~ a [18] $end
$var wire 1 !! a [17] $end
$var wire 1 "! a [16] $end
$var wire 1 #! a [15] $end
$var wire 1 $! a [14] $end
$var wire 1 %! a [13] $end
$var wire 1 &! a [12] $end
$var wire 1 '! a [11] $end
$var wire 1 (! a [10] $end
$var wire 1 )! a [9] $end
$var wire 1 *! a [8] $end
$var wire 1 +! a [7] $end
$var wire 1 ,! a [6] $end
$var wire 1 -! a [5] $end
$var wire 1 .! a [4] $end
$var wire 1 /! a [3] $end
$var wire 1 0! a [2] $end
$var wire 1 1! a [1] $end
$var wire 1 2! a [0] $end
$var wire 1 V" b [31] $end
$var wire 1 W" b [30] $end
$var wire 1 X" b [29] $end
$var wire 1 Y" b [28] $end
$var wire 1 Z" b [27] $end
$var wire 1 [" b [26] $end
$var wire 1 \" b [25] $end
$var wire 1 ]" b [24] $end
$var wire 1 ^" b [23] $end
$var wire 1 _" b [22] $end
$var wire 1 `" b [21] $end
$var wire 1 a" b [20] $end
$var wire 1 b" b [19] $end
$var wire 1 c" b [18] $end
$var wire 1 d" b [17] $end
$var wire 1 e" b [16] $end
$var wire 1 f" b [15] $end
$var wire 1 g" b [14] $end
$var wire 1 h" b [13] $end
$var wire 1 i" b [12] $end
$var wire 1 j" b [11] $end
$var wire 1 k" b [10] $end
$var wire 1 l" b [9] $end
$var wire 1 m" b [8] $end
$var wire 1 n" b [7] $end
$var wire 1 o" b [6] $end
$var wire 1 p" b [5] $end
$var wire 1 q" b [4] $end
$var wire 1 r" b [3] $end
$var wire 1 s" b [2] $end
$var wire 1 t" b [1] $end
$var wire 1 u" b [0] $end
$var wire 1 , op [2] $end
$var wire 1 - op [1] $end
$var wire 1 . op [0] $end
$var wire 1 / custom_en $end
$var reg 32 v" result [31:0] $end
$upscope $end

$scope module u_control $end
$var wire 1 J opcode [6] $end
$var wire 1 K opcode [5] $end
$var wire 1 L opcode [4] $end
$var wire 1 M opcode [3] $end
$var wire 1 N opcode [2] $end
$var wire 1 O opcode [1] $end
$var wire 1 P opcode [0] $end
$var wire 1 B funct3 [2] $end
$var wire 1 C funct3 [1] $end
$var wire 1 D funct3 [0] $end
$var wire 1 1 funct7 [6] $end
$var wire 1 2 funct7 [5] $end
$var wire 1 3 funct7 [4] $end
$var wire 1 4 funct7 [3] $end
$var wire 1 5 funct7 [2] $end
$var wire 1 6 funct7 [1] $end
$var wire 1 7 funct7 [0] $end
$var reg 1 w" reg_write $end
$var reg 1 x" mem_to_reg $end
$var reg 1 y" mem_write $end
$var reg 1 z" mem_read $end
$var reg 2 {" alu_src [1:0] $end
$var reg 1 |" pc_src $end
$var reg 3 }" alu_ctrl [2:0] $end
$var reg 1 ~" custom_en $end
$upscope $end
$upscope $end
$upscope $end
$enddefinitions $end
#0
$dumpvars
0!
0"
b0 0
b0 v"
0w"
0x"
0y"
0z"
b0 {"
0|"
b0 }"
0~"
b100000 U"
0%
0&
0'
0(
0*
0)
0+
0.
0-
0,
0/
1P
1O
0N
0M
1L
0K
0J
1I
0H
0G
0F
0E
0D
0C
0B
0A
0@
0?
0>
0=
0<
0;
0:
09
08
07
06
05
04
03
02
01
0p
0o
0n
0m
0l
0k
0j
0i
0h
0g
0f
0e
0d
0c
0b
0a
0`
0_
0^
0]
0\
0[
0Z
0Y
0X
0W
0V
0U
0T
0S
0R
0Q
02!
01!
00!
0/!
0.!
0-!
0,!
0+!
0*!
0)!
0(!
0'!
0&!
0%!
0$!
0#!
0"!
0!!
0~
0}
0|
0{
0z
0y
0x
0w
0v
0u
0t
0s
0r
0q
0R!
0Q!
0P!
0O!
0N!
0M!
0L!
0K!
0J!
0I!
0H!
0G!
0F!
0E!
0D!
0C!
0B!
0A!
0@!
0?!
0>!
0=!
0<!
0;!
0:!
09!
08!
07!
06!
05!
04!
03!
0r!
0q!
0p!
0o!
0n!
0m!
0l!
0k!
0j!
0i!
0h!
0g!
0f!
0e!
0d!
0c!
0b!
0a!
0`!
0_!
0^!
0]!
0\!
0[!
0Z!
0Y!
0X!
0W!
0V!
0U!
0T!
0S!
04"
03"
02"
01"
00"
0/"
0."
0-"
0,"
0+"
0*"
0)"
0("
0'"
0&"
0%"
0$"
0#"
0""
0!"
0~!
0}!
0|!
0{!
0z!
0y!
0x!
0w!
0v!
0u!
0t!
0s!
0T"
0S"
0R"
0Q"
0P"
0O"
0N"
0M"
0L"
0K"
0J"
0I"
0H"
0G"
0F"
0E"
0D"
0C"
0B"
0A"
0@"
0?"
0>"
0="
0<"
0;"
0:"
09"
08"
07"
06"
05"
0u"
0t"
0s"
0r"
0q"
0p"
0o"
0n"
0m"
0l"
0k"
0j"
0i"
0h"
0g"
0f"
0e"
0d"
0c"
0b"
0a"
0`"
0_"
0^"
0]"
0\"
0["
0Z"
0Y"
0X"
0W"
0V"
0$
0#
$end
#10000
1!
1#
#20000
0!
0#
#25000
1"
1$
#30000
1!
1#
b100 0
0I
1H
1<
1T"
#40000
0!
0#
#50000
1!
1#
b1000 0
1K
1I
1A
0<
1;
0T"
1S"
1w"
1%
#60000
0!
0#
#70000
1!
1#
b1100 0
0K
0I
0H
1G
0A
1<
1:
19
18
17
16
15
1T"
1R"
1Q"
1P"
1O"
1N"
1M"
0w"
0%
#80000
0!
0#
#90000
1!
1#
b10000 0
0L
1K
0G
1C
1A
1@
0<
0;
09
08
07
06
05
0T"
0S"
0Q"
0P"
0O"
0N"
0M"
1y"
b10 {"
1'
1)
1s"
b100 v"
1p!
1n
#100000
0!
0#
#110000
1!
1#
b10100 0
0K
1H
0@
0:
0R"
0s"
0y"
b0 {"
1w"
1x"
1z"
b10 {"
0'
1%
1&
1(
0n
b0 v"
0p!
13"
11"
1o
1m
#120000
0!
0#
#130000
1!
1#
b11000 0
1L
0C
0A
1@
1<
18
17
15
1T"
1P"
1O"
1M"
1u"
1q"
1p"
1n"
11!
1/!
0w"
0x"
0z"
b0 {"
0%
0&
0(
0)
03"
01"
0o
0m
0u"
0q"
0p"
0n"
b10111011 v"
b1010 v"
1q!
1o!
1o
1m
#140000
0!
0#
#150000
1!
1#
b11100 0
0L
1K
1J
0H
0@
0<
08
07
05
0T"
0P"
0O"
0M"
01!
0/!
1|"
b100 }"
1+
1,
b0 v"
b1 v"
1r!
0q!
0o!
1p
0o
0m
